…
# Plot a scatter plot of the Bulk with x-axis being POS and y-axis being Bulk values

BSAResults %>% filter(CHROM == "II") %>% ggplot(., aes(x = POS, y = Bulk)) + geom_point()

<img src="{{< blogdown/postref >}}index.en_files/figure-html/unnamed-chunk-14-1.png" width="672" />

# If we want plot Bulk, Interaction, and Parent for Chr II at once, we need to pivot the data to long format. How do we do so?

BSAResults %>% filter(CHROM == "II") %>% pivot_longer(c("Bulk", "Parent", "Interaction")) 

## # A tibble: 10,710 × 5
##    X            CHROM    POS name          value
##    <chr>        <chr>  <dbl> <chr>         <dbl>
##  1 result.11000 II    100153 Bulk        -0.183 
##  2 result.11000 II    100153 Parent      -0.0647
##  3 result.11000 II    100153 Interaction  0.199 
##  4 result.21000 II    100367 Bulk        -0.188 
##  5 result.21000 II    100367 Parent      -0.291 
##  6 result.21000 II    100367 Interaction  0.286 
##  7 result.31000 II    100413 Bulk        -0.328 
##  8 result.31000 II    100413 Parent      -0.303 
##  9 result.31000 II    100413 Interaction  0.524 
## 10 result.41000 II    100878 Bulk         0.0204
## # … with 10,700 more rows
…
